/Users/youhaosun/Programming/OCP-maven/serviceLocatorReservation/src/main/java/module-info.java
/Users/youhaosun/Programming/OCP-maven/serviceLocatorReservation/src/main/java/reservation/TourFinder.java
/Users/youhaosun/Programming/OCP-maven/serviceLocatorReservation/src/main/java/reservation/Test.java
